%YAML 1.1
%TAG !u! tag:unity3d.com,2011:
--- !u!1045 &1
EditorBuildSettings:
  m_ObjectHideFlags: 0
  serializedVersion: 2
  m_Scenes:
  - enabled: 1
    path: Assets/GameScenes/Splash.unity
    guid: 0f4e2e9c0c41940b1bc32fca87a47f3c
  - enabled: 1
    path: Assets/GameScenes/Main.unity
    guid: 4e5cb37830c974a5b9acfa21c0f15ce0
  - enabled: 1
    path: Assets/GameScenes/Painter.unity
    guid: c11ce822dbc83441eafc23606e6c91f8
  m_configObjects: {}
