%YAML 1.1
%TAG !u! tag:unity3d.com,2011:
--- !u!1 &161634
GameObject:
  m_ObjectHideFlags: 0
  m_CorrespondingSourceObject: {fileID: 0}
  m_PrefabInstance: {fileID: 0}
  m_PrefabAsset: {fileID: 0}
  serializedVersion: 6
  m_Component:
  - component: {fileID: 22431160}
  - component: {fileID: 22249536}
  - component: {fileID: 11422766}
  - component: {fileID: 114480753646855538}
  m_Layer: 5
  m_Name: CellView
  m_TagString: Untagged
  m_Icon: {fileID: 0}
  m_NavMeshLayer: 0
  m_StaticEditorFlags: 0
  m_IsActive: 1
--- !u!224 &22431160
RectTransform:
  m_ObjectHideFlags: 0
  m_CorrespondingSourceObject: {fileID: 0}
  m_PrefabInstance: {fileID: 0}
  m_PrefabAsset: {fileID: 0}
  m_GameObject: {fileID: 161634}
  m_LocalRotation: {x: 0, y: 0, z: 0, w: 1}
  m_LocalPosition: {x: 0, y: 0, z: 0}
  m_LocalScale: {x: 1, y: 1, z: 1}
  m_Children:
  - {fileID: 6173874683847414438}
  - {fileID: 6173874683856152076}
  m_Father: {fileID: 0}
  m_RootOrder: 0
  m_LocalEulerAnglesHint: {x: 0, y: 0, z: 0}
  m_AnchorMin: {x: 0.5, y: 0.5}
  m_AnchorMax: {x: 0.5, y: 0.5}
  m_AnchoredPosition: {x: 0, y: 0}
  m_SizeDelta: {x: 0, y: 0}
  m_Pivot: {x: 0.5, y: 0.5}
--- !u!222 &22249536
CanvasRenderer:
  m_ObjectHideFlags: 0
  m_CorrespondingSourceObject: {fileID: 0}
  m_PrefabInstance: {fileID: 0}
  m_PrefabAsset: {fileID: 0}
  m_GameObject: {fileID: 161634}
  m_CullTransparentMesh: 0
--- !u!114 &11422766
MonoBehaviour:
  m_ObjectHideFlags: 0
  m_CorrespondingSourceObject: {fileID: 0}
  m_PrefabInstance: {fileID: 0}
  m_PrefabAsset: {fileID: 0}
  m_GameObject: {fileID: 161634}
  m_Enabled: 1
  m_EditorHideFlags: 0
  m_Script: {fileID: 11500000, guid: 7a0660653fb0f6246a24ce78e279a2a3, type: 3}
  m_Name: 
  m_EditorClassIdentifier: 
  cellIdentifier: 44656d6f20312043656c6c
  cell1: {fileID: 6248419838077289218}
  cell2: {fileID: 6248419838102648744}
--- !u!114 &114480753646855538
MonoBehaviour:
  m_ObjectHideFlags: 0
  m_CorrespondingSourceObject: {fileID: 0}
  m_PrefabInstance: {fileID: 0}
  m_PrefabAsset: {fileID: 0}
  m_GameObject: {fileID: 161634}
  m_Enabled: 1
  m_EditorHideFlags: 0
  m_Script: {fileID: 11500000, guid: 8a8695521f0d02e499659fee002a26c2, type: 3}
  m_Name: 
  m_EditorClassIdentifier: 
  m_Padding:
    m_Left: 0
    m_Right: 0
    m_Top: 0
    m_Bottom: 0
  m_ChildAlignment: 4
  m_StartCorner: 0
  m_StartAxis: 0
  m_CellSize: {x: 370, y: 370}
  m_Spacing: {x: 20, y: 5}
  m_Constraint: 1
  m_ConstraintCount: 2
--- !u!1001 &6247065871359285870
PrefabInstance:
  m_ObjectHideFlags: 0
  serializedVersion: 2
  m_Modification:
    m_TransformParent: {fileID: 22431160}
    m_Modifications:
    - target: {fileID: 1146510576, guid: 1136a7686fd7b4357b3ef5ffbd1db54a, type: 3}
      propertyPath: m_IsActive
      value: 0
      objectReference: {fileID: 0}
    - target: {fileID: 1146510577, guid: 1136a7686fd7b4357b3ef5ffbd1db54a, type: 3}
      propertyPath: m_AnchoredPosition.x
      value: -5
      objectReference: {fileID: 0}
    - target: {fileID: 1146510577, guid: 1136a7686fd7b4357b3ef5ffbd1db54a, type: 3}
      propertyPath: m_AnchoredPosition.y
      value: 5
      objectReference: {fileID: 0}
    - target: {fileID: 1356743641651564, guid: 1136a7686fd7b4357b3ef5ffbd1db54a, type: 3}
      propertyPath: m_Name
      value: 0
      objectReference: {fileID: 0}
    - target: {fileID: 224035871227470586, guid: 1136a7686fd7b4357b3ef5ffbd1db54a,
        type: 3}
      propertyPath: m_SizeDelta.x
      value: 0
      objectReference: {fileID: 0}
    - target: {fileID: 224035871227470586, guid: 1136a7686fd7b4357b3ef5ffbd1db54a,
        type: 3}
      propertyPath: m_SizeDelta.y
      value: 0
      objectReference: {fileID: 0}
    - target: {fileID: 224035871227470586, guid: 1136a7686fd7b4357b3ef5ffbd1db54a,
        type: 3}
      propertyPath: m_AnchoredPosition.x
      value: 0
      objectReference: {fileID: 0}
    - target: {fileID: 224035871227470586, guid: 1136a7686fd7b4357b3ef5ffbd1db54a,
        type: 3}
      propertyPath: m_AnchoredPosition.y
      value: 0
      objectReference: {fileID: 0}
    - target: {fileID: 224066312393361608, guid: 1136a7686fd7b4357b3ef5ffbd1db54a,
        type: 3}
      propertyPath: m_Pivot.x
      value: 0.5
      objectReference: {fileID: 0}
    - target: {fileID: 224066312393361608, guid: 1136a7686fd7b4357b3ef5ffbd1db54a,
        type: 3}
      propertyPath: m_Pivot.y
      value: 0.5
      objectReference: {fileID: 0}
    - target: {fileID: 224066312393361608, guid: 1136a7686fd7b4357b3ef5ffbd1db54a,
        type: 3}
      propertyPath: m_RootOrder
      value: 0
      objectReference: {fileID: 0}
    - target: {fileID: 224066312393361608, guid: 1136a7686fd7b4357b3ef5ffbd1db54a,
        type: 3}
      propertyPath: m_AnchorMax.x
      value: 0
      objectReference: {fileID: 0}
    - target: {fileID: 224066312393361608, guid: 1136a7686fd7b4357b3ef5ffbd1db54a,
        type: 3}
      propertyPath: m_AnchorMax.y
      value: 0
      objectReference: {fileID: 0}
    - target: {fileID: 224066312393361608, guid: 1136a7686fd7b4357b3ef5ffbd1db54a,
        type: 3}
      propertyPath: m_AnchorMin.x
      value: 0
      objectReference: {fileID: 0}
    - target: {fileID: 224066312393361608, guid: 1136a7686fd7b4357b3ef5ffbd1db54a,
        type: 3}
      propertyPath: m_AnchorMin.y
      value: 0
      objectReference: {fileID: 0}
    - target: {fileID: 224066312393361608, guid: 1136a7686fd7b4357b3ef5ffbd1db54a,
        type: 3}
      propertyPath: m_SizeDelta.x
      value: 0
      objectReference: {fileID: 0}
    - target: {fileID: 224066312393361608, guid: 1136a7686fd7b4357b3ef5ffbd1db54a,
        type: 3}
      propertyPath: m_SizeDelta.y
      value: 0
      objectReference: {fileID: 0}
    - target: {fileID: 224066312393361608, guid: 1136a7686fd7b4357b3ef5ffbd1db54a,
        type: 3}
      propertyPath: m_LocalPosition.x
      value: 0
      objectReference: {fileID: 0}
    - target: {fileID: 224066312393361608, guid: 1136a7686fd7b4357b3ef5ffbd1db54a,
        type: 3}
      propertyPath: m_LocalPosition.y
      value: 0
      objectReference: {fileID: 0}
    - target: {fileID: 224066312393361608, guid: 1136a7686fd7b4357b3ef5ffbd1db54a,
        type: 3}
      propertyPath: m_LocalPosition.z
      value: 0
      objectReference: {fileID: 0}
    - target: {fileID: 224066312393361608, guid: 1136a7686fd7b4357b3ef5ffbd1db54a,
        type: 3}
      propertyPath: m_LocalRotation.w
      value: 1
      objectReference: {fileID: 0}
    - target: {fileID: 224066312393361608, guid: 1136a7686fd7b4357b3ef5ffbd1db54a,
        type: 3}
      propertyPath: m_LocalRotation.x
      value: 0
      objectReference: {fileID: 0}
    - target: {fileID: 224066312393361608, guid: 1136a7686fd7b4357b3ef5ffbd1db54a,
        type: 3}
      propertyPath: m_LocalRotation.y
      value: 0
      objectReference: {fileID: 0}
    - target: {fileID: 224066312393361608, guid: 1136a7686fd7b4357b3ef5ffbd1db54a,
        type: 3}
      propertyPath: m_LocalRotation.z
      value: 0
      objectReference: {fileID: 0}
    - target: {fileID: 224066312393361608, guid: 1136a7686fd7b4357b3ef5ffbd1db54a,
        type: 3}
      propertyPath: m_AnchoredPosition.x
      value: 0
      objectReference: {fileID: 0}
    - target: {fileID: 224066312393361608, guid: 1136a7686fd7b4357b3ef5ffbd1db54a,
        type: 3}
      propertyPath: m_AnchoredPosition.y
      value: 0
      objectReference: {fileID: 0}
    - target: {fileID: 224066312393361608, guid: 1136a7686fd7b4357b3ef5ffbd1db54a,
        type: 3}
      propertyPath: m_LocalEulerAnglesHint.x
      value: 0
      objectReference: {fileID: 0}
    - target: {fileID: 224066312393361608, guid: 1136a7686fd7b4357b3ef5ffbd1db54a,
        type: 3}
      propertyPath: m_LocalEulerAnglesHint.y
      value: 0
      objectReference: {fileID: 0}
    - target: {fileID: 224066312393361608, guid: 1136a7686fd7b4357b3ef5ffbd1db54a,
        type: 3}
      propertyPath: m_LocalEulerAnglesHint.z
      value: 0
      objectReference: {fileID: 0}
    - target: {fileID: 3412511520156832119, guid: 1136a7686fd7b4357b3ef5ffbd1db54a,
        type: 3}
      propertyPath: m_Pivot.x
      value: 0
      objectReference: {fileID: 0}
    - target: {fileID: 3412511520156832119, guid: 1136a7686fd7b4357b3ef5ffbd1db54a,
        type: 3}
      propertyPath: m_AnchorMax.x
      value: 0
      objectReference: {fileID: 0}
    - target: {fileID: 3412511520156832119, guid: 1136a7686fd7b4357b3ef5ffbd1db54a,
        type: 3}
      propertyPath: m_AnchorMax.y
      value: 1
      objectReference: {fileID: 0}
    - target: {fileID: 3412511520156832119, guid: 1136a7686fd7b4357b3ef5ffbd1db54a,
        type: 3}
      propertyPath: m_AnchorMin.x
      value: 0
      objectReference: {fileID: 0}
    - target: {fileID: 3412511520156832119, guid: 1136a7686fd7b4357b3ef5ffbd1db54a,
        type: 3}
      propertyPath: m_AnchorMin.y
      value: 1
      objectReference: {fileID: 0}
    - target: {fileID: 3412511520156832119, guid: 1136a7686fd7b4357b3ef5ffbd1db54a,
        type: 3}
      propertyPath: m_SizeDelta.x
      value: 50
      objectReference: {fileID: 0}
    - target: {fileID: 3412511520156832119, guid: 1136a7686fd7b4357b3ef5ffbd1db54a,
        type: 3}
      propertyPath: m_SizeDelta.y
      value: 50
      objectReference: {fileID: 0}
    - target: {fileID: 3412511520156832119, guid: 1136a7686fd7b4357b3ef5ffbd1db54a,
        type: 3}
      propertyPath: m_AnchoredPosition.x
      value: -265
      objectReference: {fileID: 0}
    - target: {fileID: 3412511520156832119, guid: 1136a7686fd7b4357b3ef5ffbd1db54a,
        type: 3}
      propertyPath: m_AnchoredPosition.y
      value: 305
      objectReference: {fileID: 0}
    - target: {fileID: 4382492093903153235, guid: 1136a7686fd7b4357b3ef5ffbd1db54a,
        type: 3}
      propertyPath: m_Sprite
      value: 
      objectReference: {fileID: 21300000, guid: 89a0074e9352d1442a99079018cc273e,
        type: 3}
    m_RemovedComponents: []
  m_SourcePrefab: {fileID: 100100000, guid: 1136a7686fd7b4357b3ef5ffbd1db54a, type: 3}
--- !u!1 &6248419838077289218 stripped
GameObject:
  m_CorrespondingSourceObject: {fileID: 1356743641651564, guid: 1136a7686fd7b4357b3ef5ffbd1db54a,
    type: 3}
  m_PrefabInstance: {fileID: 6247065871359285870}
  m_PrefabAsset: {fileID: 0}
--- !u!224 &6173874683847414438 stripped
RectTransform:
  m_CorrespondingSourceObject: {fileID: 224066312393361608, guid: 1136a7686fd7b4357b3ef5ffbd1db54a,
    type: 3}
  m_PrefabInstance: {fileID: 6247065871359285870}
  m_PrefabAsset: {fileID: 0}
--- !u!114 &1677188178284370718
MonoBehaviour:
  m_ObjectHideFlags: 0
  m_CorrespondingSourceObject: {fileID: 0}
  m_PrefabInstance: {fileID: 0}
  m_PrefabAsset: {fileID: 0}
  m_GameObject: {fileID: 6248419838077289218}
  m_Enabled: 1
  m_EditorHideFlags: 0
  m_Script: {fileID: 11500000, guid: 31a19414c41e5ae4aae2af33fee712f6, type: 3}
  m_Name: 
  m_EditorClassIdentifier: 
  m_ShowMaskGraphic: 1
--- !u!1001 &6247065871367499460
PrefabInstance:
  m_ObjectHideFlags: 0
  serializedVersion: 2
  m_Modification:
    m_TransformParent: {fileID: 22431160}
    m_Modifications:
    - target: {fileID: 1146510576, guid: 1136a7686fd7b4357b3ef5ffbd1db54a, type: 3}
      propertyPath: m_IsActive
      value: 0
      objectReference: {fileID: 0}
    - target: {fileID: 1146510577, guid: 1136a7686fd7b4357b3ef5ffbd1db54a, type: 3}
      propertyPath: m_AnchoredPosition.x
      value: -5
      objectReference: {fileID: 0}
    - target: {fileID: 1146510577, guid: 1136a7686fd7b4357b3ef5ffbd1db54a, type: 3}
      propertyPath: m_AnchoredPosition.y
      value: 5
      objectReference: {fileID: 0}
    - target: {fileID: 1356743641651564, guid: 1136a7686fd7b4357b3ef5ffbd1db54a, type: 3}
      propertyPath: m_Name
      value: 0
      objectReference: {fileID: 0}
    - target: {fileID: 224035871227470586, guid: 1136a7686fd7b4357b3ef5ffbd1db54a,
        type: 3}
      propertyPath: m_SizeDelta.x
      value: 0
      objectReference: {fileID: 0}
    - target: {fileID: 224035871227470586, guid: 1136a7686fd7b4357b3ef5ffbd1db54a,
        type: 3}
      propertyPath: m_SizeDelta.y
      value: 0
      objectReference: {fileID: 0}
    - target: {fileID: 224035871227470586, guid: 1136a7686fd7b4357b3ef5ffbd1db54a,
        type: 3}
      propertyPath: m_AnchoredPosition.x
      value: 0
      objectReference: {fileID: 0}
    - target: {fileID: 224035871227470586, guid: 1136a7686fd7b4357b3ef5ffbd1db54a,
        type: 3}
      propertyPath: m_AnchoredPosition.y
      value: 0
      objectReference: {fileID: 0}
    - target: {fileID: 224066312393361608, guid: 1136a7686fd7b4357b3ef5ffbd1db54a,
        type: 3}
      propertyPath: m_Pivot.x
      value: 0.5
      objectReference: {fileID: 0}
    - target: {fileID: 224066312393361608, guid: 1136a7686fd7b4357b3ef5ffbd1db54a,
        type: 3}
      propertyPath: m_Pivot.y
      value: 0.5
      objectReference: {fileID: 0}
    - target: {fileID: 224066312393361608, guid: 1136a7686fd7b4357b3ef5ffbd1db54a,
        type: 3}
      propertyPath: m_RootOrder
      value: 1
      objectReference: {fileID: 0}
    - target: {fileID: 224066312393361608, guid: 1136a7686fd7b4357b3ef5ffbd1db54a,
        type: 3}
      propertyPath: m_AnchorMax.x
      value: 0
      objectReference: {fileID: 0}
    - target: {fileID: 224066312393361608, guid: 1136a7686fd7b4357b3ef5ffbd1db54a,
        type: 3}
      propertyPath: m_AnchorMax.y
      value: 0
      objectReference: {fileID: 0}
    - target: {fileID: 224066312393361608, guid: 1136a7686fd7b4357b3ef5ffbd1db54a,
        type: 3}
      propertyPath: m_AnchorMin.x
      value: 0
      objectReference: {fileID: 0}
    - target: {fileID: 224066312393361608, guid: 1136a7686fd7b4357b3ef5ffbd1db54a,
        type: 3}
      propertyPath: m_AnchorMin.y
      value: 0
      objectReference: {fileID: 0}
    - target: {fileID: 224066312393361608, guid: 1136a7686fd7b4357b3ef5ffbd1db54a,
        type: 3}
      propertyPath: m_SizeDelta.x
      value: 0
      objectReference: {fileID: 0}
    - target: {fileID: 224066312393361608, guid: 1136a7686fd7b4357b3ef5ffbd1db54a,
        type: 3}
      propertyPath: m_SizeDelta.y
      value: 0
      objectReference: {fileID: 0}
    - target: {fileID: 224066312393361608, guid: 1136a7686fd7b4357b3ef5ffbd1db54a,
        type: 3}
      propertyPath: m_LocalPosition.x
      value: 0
      objectReference: {fileID: 0}
    - target: {fileID: 224066312393361608, guid: 1136a7686fd7b4357b3ef5ffbd1db54a,
        type: 3}
      propertyPath: m_LocalPosition.y
      value: 0
      objectReference: {fileID: 0}
    - target: {fileID: 224066312393361608, guid: 1136a7686fd7b4357b3ef5ffbd1db54a,
        type: 3}
      propertyPath: m_LocalPosition.z
      value: 0
      objectReference: {fileID: 0}
    - target: {fileID: 224066312393361608, guid: 1136a7686fd7b4357b3ef5ffbd1db54a,
        type: 3}
      propertyPath: m_LocalRotation.w
      value: 1
      objectReference: {fileID: 0}
    - target: {fileID: 224066312393361608, guid: 1136a7686fd7b4357b3ef5ffbd1db54a,
        type: 3}
      propertyPath: m_LocalRotation.x
      value: 0
      objectReference: {fileID: 0}
    - target: {fileID: 224066312393361608, guid: 1136a7686fd7b4357b3ef5ffbd1db54a,
        type: 3}
      propertyPath: m_LocalRotation.y
      value: 0
      objectReference: {fileID: 0}
    - target: {fileID: 224066312393361608, guid: 1136a7686fd7b4357b3ef5ffbd1db54a,
        type: 3}
      propertyPath: m_LocalRotation.z
      value: 0
      objectReference: {fileID: 0}
    - target: {fileID: 224066312393361608, guid: 1136a7686fd7b4357b3ef5ffbd1db54a,
        type: 3}
      propertyPath: m_AnchoredPosition.x
      value: 0
      objectReference: {fileID: 0}
    - target: {fileID: 224066312393361608, guid: 1136a7686fd7b4357b3ef5ffbd1db54a,
        type: 3}
      propertyPath: m_AnchoredPosition.y
      value: 0
      objectReference: {fileID: 0}
    - target: {fileID: 224066312393361608, guid: 1136a7686fd7b4357b3ef5ffbd1db54a,
        type: 3}
      propertyPath: m_LocalEulerAnglesHint.x
      value: 0
      objectReference: {fileID: 0}
    - target: {fileID: 224066312393361608, guid: 1136a7686fd7b4357b3ef5ffbd1db54a,
        type: 3}
      propertyPath: m_LocalEulerAnglesHint.y
      value: 0
      objectReference: {fileID: 0}
    - target: {fileID: 224066312393361608, guid: 1136a7686fd7b4357b3ef5ffbd1db54a,
        type: 3}
      propertyPath: m_LocalEulerAnglesHint.z
      value: 0
      objectReference: {fileID: 0}
    - target: {fileID: 3412511520156832119, guid: 1136a7686fd7b4357b3ef5ffbd1db54a,
        type: 3}
      propertyPath: m_Pivot.x
      value: 0
      objectReference: {fileID: 0}
    - target: {fileID: 3412511520156832119, guid: 1136a7686fd7b4357b3ef5ffbd1db54a,
        type: 3}
      propertyPath: m_AnchorMax.x
      value: 0
      objectReference: {fileID: 0}
    - target: {fileID: 3412511520156832119, guid: 1136a7686fd7b4357b3ef5ffbd1db54a,
        type: 3}
      propertyPath: m_AnchorMax.y
      value: 1
      objectReference: {fileID: 0}
    - target: {fileID: 3412511520156832119, guid: 1136a7686fd7b4357b3ef5ffbd1db54a,
        type: 3}
      propertyPath: m_AnchorMin.x
      value: 0
      objectReference: {fileID: 0}
    - target: {fileID: 3412511520156832119, guid: 1136a7686fd7b4357b3ef5ffbd1db54a,
        type: 3}
      propertyPath: m_AnchorMin.y
      value: 1
      objectReference: {fileID: 0}
    - target: {fileID: 3412511520156832119, guid: 1136a7686fd7b4357b3ef5ffbd1db54a,
        type: 3}
      propertyPath: m_SizeDelta.x
      value: 50
      objectReference: {fileID: 0}
    - target: {fileID: 3412511520156832119, guid: 1136a7686fd7b4357b3ef5ffbd1db54a,
        type: 3}
      propertyPath: m_SizeDelta.y
      value: 50
      objectReference: {fileID: 0}
    - target: {fileID: 3412511520156832119, guid: 1136a7686fd7b4357b3ef5ffbd1db54a,
        type: 3}
      propertyPath: m_AnchoredPosition.x
      value: -265
      objectReference: {fileID: 0}
    - target: {fileID: 3412511520156832119, guid: 1136a7686fd7b4357b3ef5ffbd1db54a,
        type: 3}
      propertyPath: m_AnchoredPosition.y
      value: 305
      objectReference: {fileID: 0}
    - target: {fileID: 4382492093903153235, guid: 1136a7686fd7b4357b3ef5ffbd1db54a,
        type: 3}
      propertyPath: m_Sprite
      value: 
      objectReference: {fileID: 21300000, guid: 89a0074e9352d1442a99079018cc273e,
        type: 3}
    m_RemovedComponents: []
  m_SourcePrefab: {fileID: 100100000, guid: 1136a7686fd7b4357b3ef5ffbd1db54a, type: 3}
--- !u!1 &6248419838102648744 stripped
GameObject:
  m_CorrespondingSourceObject: {fileID: 1356743641651564, guid: 1136a7686fd7b4357b3ef5ffbd1db54a,
    type: 3}
  m_PrefabInstance: {fileID: 6247065871367499460}
  m_PrefabAsset: {fileID: 0}
--- !u!224 &6173874683856152076 stripped
RectTransform:
  m_CorrespondingSourceObject: {fileID: 224066312393361608, guid: 1136a7686fd7b4357b3ef5ffbd1db54a,
    type: 3}
  m_PrefabInstance: {fileID: 6247065871367499460}
  m_PrefabAsset: {fileID: 0}
--- !u!114 &2541753181654959778
MonoBehaviour:
  m_ObjectHideFlags: 0
  m_CorrespondingSourceObject: {fileID: 0}
  m_PrefabInstance: {fileID: 0}
  m_PrefabAsset: {fileID: 0}
  m_GameObject: {fileID: 6248419838102648744}
  m_Enabled: 1
  m_EditorHideFlags: 0
  m_Script: {fileID: 11500000, guid: 31a19414c41e5ae4aae2af33fee712f6, type: 3}
  m_Name: 
  m_EditorClassIdentifier: 
  m_ShowMaskGraphic: 1
